EMR RK Analysis Script
…
x = d.opt.sorbent %>% filter(sorbent == "ctrl") %>%
  group_by(compound) %>%
  summarise(resp.ctrl.mean = mean(resp),
            resp.ctrl.sd = sd(resp))

y = d.opt.sorbent %>% filter(sorbent != "ctrl") %>%
  group_by(sorbent, compound) %>%
  summarise(resp.mean = mean(resp), resp.sd = sd(resp))

d.opt.sorbent.recovery = y %>% left_join(x, by = c("compound")) %>%
  mutate(recovery.mean = resp.mean / resp.ctrl.mean * 100,
         recovery.sd = sqrt((resp.sd/resp.mean)^2 + (resp.ctrl.sd/resp.ctrl.mean)^2) * recovery.mean  )
d.opt.sorbent.recovery

## # A tibble: 182 x 8
## # Groups:   sorbent [7]
##    sorbent compound resp.mean resp.sd resp.ctrl.mean
##    <chr>   <chr>        <dbl>   <dbl>          <dbl>
##  1 100 NP  3-HBA        2537.    91.8          2731.
##  2 100 NP  3-HPAA       2248.   329.           2560.
##  3 100 NP  3-HPPA       3208.   479.           3907.
##  4 100 NP  3,4-DHBA     1123.   178.           1099.
##  5 100 NP  3,4-DHP…      176.   119.            407.
##  6 100 NP  3,4-DHPE     1031.    93.5          1672.
##  7 100 NP  3,4-DHP…      203.    81.7           646.
##  8 100 NP  4-HBA        6886.   742.           7439.
##  9 100 NP  4-HBOH       2652.   280.           3249.
## 10 100 NP  4-HCA        1226.   152.           1367.
## # … with 172 more rows, and 3 more variables:
## #   resp.ctrl.sd <dbl>, recovery.mean <dbl>,
## #   recovery.sd <dbl>
…
## [1] 26

# Effect of sorbent mass
d.opt.sorbent.mass = read_excel(path, sheet = "sorbent mass")
d.opt.sorbent.mass = d.opt.sorbent.mass %>% 
  gather(-c(`Data File`, code, `Acq. Date-Time`, `sorbent mass`), key = compound, value = resp) %>%
  group_by(compound) %>%
  mutate(resp.relative = resp / mean(resp)) 

d.opt.sorbent.mass = d.opt.sorbent.mass %>%
  group_by(`sorbent mass`, compound) %>%
  summarise(resp.relative.mean = mean(resp.relative), resp.relative.sd = sd(resp.relative)) 
d.opt.sorbent.mass

## # A tibble: 78 x 4
## # Groups:   sorbent mass [3]
##    `sorbent mass` compound resp.relative.m…
##    <chr>          <chr>               <dbl>
##  1 1~5 mg         3-HBA                1.06
##  2 1~5 mg         3-HPAA               1.03
##  3 1~5 mg         3-HPPA               1.10
##  4 1~5 mg         3,4-DHBA             1.21
##  5 1~5 mg         3,4-DHP…             1.50
##  6 1~5 mg         3,4-DHPE             1.18
##  7 1~5 mg         3,4-DHP…             1.23
##  8 1~5 mg         4-HBA                1.06
##  9 1~5 mg         4-HBOH               1.07
## 10 1~5 mg         4-HCA                1.07
## # … with 68 more rows, and 1 more variable:
## #   resp.relative.sd <dbl>
…
# subtract background
d.area.steps = d.area.steps %>% left_join(d.area.blk, by = "compound") %>%
  mutate(area.spk.mean = area.mean - area.blk.mean,
         area.spk.sd = (area.sd^2 + area.blk.sd^2) %>% sqrt()) %>%
  select(compound, Name, contains("spk"))
d.area.steps  

## # A tibble: 182 x 4
## # Groups:   compound [26]
##    compound Name          area.spk.mean area.spk.sd
##    <chr>    <chr>                 <dbl>       <dbl>
##  1 3-HBA    B                    18195.      1554. 
##  2 3-HBA    C                     3564.       249. 
##  3 3-HBA    no silica gel         3845.       288. 
##  4 3-HBA    PC                   23085.      1431. 
##  5 3-HBA    PR                   23494.       727. 
##  6 3-HBA    PR neat              30583.      1915. 
##  7 3-HBA    PX                   20413.      1060. 
##  8 3-HPAA   B                     6893.       491. 
##  9 3-HPAA   C                     1320.       123. 
## 10 3-HPAA   no silica gel         1535.        74.5
## # … with 172 more rows

# spread apart steps into separate columns
x = d.area.steps %>% select(-area.spk.sd) %>% 
  spread(key = Name, value = area.spk.mean)
colnames(x) = c("compound", colnames(x)[-1] %>% str_c(".mean"))

y = d.area.steps %>% select(-area.spk.mean) %>% 
  spread(key = Name, value = area.spk.sd)
colnames(y) = c("compound", colnames(y)[-1] %>% str_c(".sd"))
y

## # A tibble: 26 x 8
## # Groups:   compound [26]
##    compound   B.sd  C.sd `no silica gel.… PC.sd PR.sd
##    <chr>     <dbl> <dbl>            <dbl> <dbl> <dbl>
##  1 3-HBA     1554.  249.            288.  1431.  727.
##  2 3-HPAA     491.  123.             74.5  489.  397.
##  3 3-HPPA    2908.  936.            281.  3529. 1474.
##  4 3,4-DHBA  4313.  971.            658.  4378. 2164.
##  5 3,4-DHP…  2733.  502.            377.  2327. 1664.
##  6 3,4-DHPE   811.  147.             83.6  707.  448.
##  7 3,4-DHP…  2083.  359.            107.  3207. 3292.
##  8 4-HBA    10031. 5853.           2516.  7081. 3001.
##  9 4-HBOH     933.  232.            102.  2094. 1614.
## 10 4-HCA     1983.  459.            360.  2743. 1404.
## # … with 16 more rows, and 2 more variables: `PR
## #   neat.sd` <dbl>, PX.sd <dbl>
…
  select(compound, contains("rec"), contains("ESI"), contains("process"))

x = d.recovery %>%
  select(compound, contains("mean")) %>%
  gather(-compound, key = step, value = mean) %>%
  mutate(step = str_remove(step, pattern = ".mean"))

y = d.recovery %>%
  select(compound, contains("sd")) %>%
  gather(-compound, key = step, value = sd) %>%
  mutate(step = str_remove(step, pattern = ".sd"))
y

## # A tibble: 156 x 3
## # Groups:   compound [26]
##    compound  step              sd
##    <chr>     <chr>          <dbl>
##  1 3-HBA     rec.extraction  8.91
##  2 3-HPAA    rec.extraction  7.39
##  3 3-HPPA    rec.extraction  7.61
##  4 3,4-DHBA  rec.extraction  9.13
##  5 3,4-DHPAA rec.extraction 14.2 
##  6 3,4-DHPE  rec.extraction 21.5 
##  7 3,4-DHPPA rec.extraction 23.9 
##  8 4-HBA     rec.extraction 13.8 
##  9 4-HBOH    rec.extraction 16.3 
## 10 4-HCA     rec.extraction  7.07
## # … with 146 more rows
…
    # matrix effect to ESI
    matrixESI.mean = PR.mean / `PR neat.mean` * 100,
    matrixESI.sd = sqrt((PR.sd / PR.mean)^2 + (`PR neat.sd` / `PR neat.mean`)^2) * matrixESI.mean,
    
    # Overall processing efficiency
    process.eff.mean = B.mean / `PR neat.mean` * 100,
    process.eff.sd = sqrt((B.sd / B.mean)^2 + (`PR neat.sd` / `PR neat.mean`)^2) * process.eff.mean) %>%
  
  select(compound, contains("rec"), contains("ESI"), contains("process"))

d.recovery.corrected

## # A tibble: 26 x 13
##    compound rec.extraction.… rec.extraction.…
##    <chr>               <dbl>            <dbl>
##  1 3-HBA                95.1             5.42
##  2 3-HPAA               95.9             6.83
##  3 3-HPPA              126.             12.9 
##  4 3,4-DHBA             94.5             5.56
##  5 3,4-DHP…             84.6            14.6 
##  6 3,4-DHPE             78.8            24.6 
##  7 3,4-DHP…             96.7            30.5 
##  8 4-HBA                99.9             9.77
##  9 4-HBOH               85.0            18.6 
## 10 4-HCA                84.0             6.21
## # … with 16 more rows, and 10 more variables:
## #   rec.EMR.mean <dbl>, rec.EMR.sd <dbl>,
## #   rec.DryReconstitute.mean <dbl>,
## #   rec.DryReconstitute.sd <dbl>,
## #   rec.Overall.mean <dbl>, rec.Overall.sd <dbl>,
## #   matrixESI.mean <dbl>, matrixESI.sd <dbl>,
## #   process.eff.mean <dbl>, process.eff.sd <dbl>
…
# tidy up
x = d.area.spk %>% select(-area.spk.sd) %>%
  spread(key = Name, value = area.spk)

y = d.area.spk %>% select(-area.spk) %>%
  spread(key = Name, value = area.spk.sd)
colnames(y) = c("compound", colnames(y)[-1] %>% str_c(".sd"))
y

## # A tibble: 26 x 6
## # Groups:   compound [26]
##    compound    B.sd  PC.sd PR.sd PRneat.sd PX.sd
##    <chr>      <dbl>  <dbl> <dbl>     <dbl> <dbl>
##  1 3-HBA      376.   587.  1884.      397.  659.
##  2 3-HPAA     777.   453.   905.      357.  677.
##  3 3-HPPA     505.   768.  1032.      649. 1122.
##  4 3,4-DHBA   802.   546.   737.      286.  709.
##  5 3,4-DHPAA 1269.   182.   274.      353.  768.
##  6 3,4-DHPE    69.2  189.   602.      207.  360.
##  7 3,4-DHPPA  674.   643.   464.      552.  439.
##  8 4-HBA     3929.  2995.  2762.     1408. 5057.
##  9 4-HBOH      29.5   77.0  566.      215.  196.
## 10 4-HCA      947.   543.  1144.     1031.  916.
## # … with 16 more rows
…
